Gets the 'authors metric' for a given filter — authors_metric • chartingtest
…
      save
      Set to TRUE if you'd like a dialog to choose where to save your CSV

      truncateAt
      Optional number of results - rest will become "Others"

    Value

    A tibble of your data

    Examples

authors_metric("QUIR01BA", "published inthelast week and brand isorchildof 10006")
#> # A tibble: 72 x 7
#>    authorId      authorHandle  authorName  count netSentiment    ots engagement
#>    <chr>         <chr>         <chr>       <int>        <int>  <int>      <int>
#>  1 Tx2355133221  thetechlairzw the tech l…    31            1  55030         NA
#>  2 Tx2900688735  bustoptv      #LetsGoVot…    22            1 279536         20
#>  3 Tx80044165    ComradeFatso… #AfricaRou…    16            5 171838          7
#>  4 Tx4156551377  OpenParlyZw   #Elections…    14            1 792951         46
#>  5 Tx19485040    MunyaBloggo   Bloggo         11            2  45779          4
#>  6 Tx14325176    brandseye     BrandsEye       9            3  57882          5
#>  7 Tx44733629    malawicoffee  Malawi Cof…     8            3   6341         16
#>  8 Tx3327123580  MotoRepublik  Moto Repub…     5            3  20631         12
#>  9 Tx1224670322  WenyuDutch    #ZimSoshAw…     5            2  11090         NA
#> 10 Tx9894877640… TheFeedZW     The FeedZW      5            0  11092         10
#> # ... with 62 more rows
…
